%YAML 1.1
%TAG !u! tag:unity3d.com,2011:
--- !u!1001 &433600883947472505
PrefabInstance:
  m_ObjectHideFlags: 0
  serializedVersion: 2
  m_Modification:
    m_TransformParent: {fileID: 0}
    m_Modifications:
    - target: {fileID: 100000, guid: 9dfecd68ffea3aa4b966258960ecedb8, type: 3}
      propertyPath: m_Name
      value: block-punch
      objectReference: {fileID: 0}
    - target: {fileID: 400000, guid: 9dfecd68ffea3aa4b966258960ecedb8, type: 3}
      propertyPath: m_LocalPosition.x
      value: 0
      objectReference: {fileID: 0}
    - target: {fileID: 400000, guid: 9dfecd68ffea3aa4b966258960ecedb8, type: 3}
      propertyPath: m_LocalPosition.y
      value: 0
      objectReference: {fileID: 0}
    - target: {fileID: 400000, guid: 9dfecd68ffea3aa4b966258960ecedb8, type: 3}
      propertyPath: m_LocalPosition.z
      value: 0
      objectReference: {fileID: 0}
    - target: {fileID: 400000, guid: 9dfecd68ffea3aa4b966258960ecedb8, type: 3}
      propertyPath: m_LocalRotation.x
      value: -0.0000015795229
      objectReference: {fileID: 0}
    - target: {fileID: 400000, guid: 9dfecd68ffea3aa4b966258960ecedb8, type: 3}
      propertyPath: m_LocalRotation.y
      value: -0
      objectReference: {fileID: 0}
    - target: {fileID: 400000, guid: 9dfecd68ffea3aa4b966258960ecedb8, type: 3}
      propertyPath: m_LocalRotation.z
      value: -0
      objectReference: {fileID: 0}
    - target: {fileID: 400000, guid: 9dfecd68ffea3aa4b966258960ecedb8, type: 3}
      propertyPath: m_LocalRotation.w
      value: 1
      objectReference: {fileID: 0}
    - target: {fileID: 400000, guid: 9dfecd68ffea3aa4b966258960ecedb8, type: 3}
      propertyPath: m_RootOrder
      value: 0
      objectReference: {fileID: 0}
    - target: {fileID: 400000, guid: 9dfecd68ffea3aa4b966258960ecedb8, type: 3}
      propertyPath: m_LocalEulerAnglesHint.x
      value: 0
      objectReference: {fileID: 0}
    - target: {fileID: 400000, guid: 9dfecd68ffea3aa4b966258960ecedb8, type: 3}
      propertyPath: m_LocalEulerAnglesHint.y
      value: 0
      objectReference: {fileID: 0}
    - target: {fileID: 400000, guid: 9dfecd68ffea3aa4b966258960ecedb8, type: 3}
      propertyPath: m_LocalEulerAnglesHint.z
      value: 0
      objectReference: {fileID: 0}
    - target: {fileID: 400000, guid: 9dfecd68ffea3aa4b966258960ecedb8, type: 3}
      propertyPath: m_LocalScale.x
      value: 0.2
      objectReference: {fileID: 0}
    - target: {fileID: 400000, guid: 9dfecd68ffea3aa4b966258960ecedb8, type: 3}
      propertyPath: m_LocalScale.y
      value: 0.2
      objectReference: {fileID: 0}
    - target: {fileID: 400000, guid: 9dfecd68ffea3aa4b966258960ecedb8, type: 3}
      propertyPath: m_LocalScale.z
      value: 0.2
      objectReference: {fileID: 0}
    - target: {fileID: 400006, guid: 9dfecd68ffea3aa4b966258960ecedb8, type: 3}
      propertyPath: m_LocalPosition.y
      value: 0
      objectReference: {fileID: 0}
    - target: {fileID: 400006, guid: 9dfecd68ffea3aa4b966258960ecedb8, type: 3}
      propertyPath: m_LocalPosition.z
      value: 0
      objectReference: {fileID: 0}
    - target: {fileID: 400006, guid: 9dfecd68ffea3aa4b966258960ecedb8, type: 3}
      propertyPath: m_LocalPosition.x
      value: 0
      objectReference: {fileID: 0}
    - target: {fileID: 2300004, guid: 9dfecd68ffea3aa4b966258960ecedb8, type: 3}
      propertyPath: m_Materials.Array.data[0]
      value: 
      objectReference: {fileID: 2100000, guid: 7cfd5a8bf86c30b40b100568acc19ad3, type: 2}
    - target: {fileID: 2300006, guid: 9dfecd68ffea3aa4b966258960ecedb8, type: 3}
      propertyPath: m_Materials.Array.data[0]
      value: 
      objectReference: {fileID: 2100000, guid: 7cfd5a8bf86c30b40b100568acc19ad3, type: 2}
    m_RemovedComponents: []
  m_SourcePrefab: {fileID: 100100000, guid: 9dfecd68ffea3aa4b966258960ecedb8, type: 3}
