%YAML 1.1
%TAG !u! tag:unity3d.com,2011:
--- !u!137 &5390228279890131084
SkinnedMeshRenderer:
  m_ObjectHideFlags: 0
  m_CorrespondingSourceObject: {fileID: 0}
  m_PrefabInstance: {fileID: 0}
  m_PrefabAsset: {fileID: 0}
  m_GameObject: {fileID: 3001619321004795247}
  m_Enabled: 1
  m_CastShadows: 1
  m_ReceiveShadows: 1
  m_DynamicOccludee: 1
  m_MotionVectors: 1
  m_LightProbeUsage: 1
  m_ReflectionProbeUsage: 1
  m_RenderingLayerMask: 1
  m_RendererPriority: 0
  m_Materials:
  - {fileID: 2100000, guid: 04b925b54977bf540b7ed4f56cc06b16, type: 2}
  - {fileID: 2100000, guid: c2265639013f58a42a1e3e3354442c11, type: 2}
  m_StaticBatchInfo:
    firstSubMesh: 0
    subMeshCount: 0
  m_StaticBatchRoot: {fileID: 0}
  m_ProbeAnchor: {fileID: 0}
  m_LightProbeVolumeOverride: {fileID: 0}
  m_ScaleInLightmap: 1
  m_PreserveUVs: 0
  m_IgnoreNormalsForChartDetection: 0
  m_ImportantGI: 0
  m_StitchLightmapSeams: 0
  m_SelectedEditorRenderState: 3
  m_MinimumChartSize: 4
  m_AutoUVMaxDistance: 0.5
  m_AutoUVMaxAngle: 89
  m_LightmapParameters: {fileID: 0}
  m_SortingLayerID: 0
  m_SortingLayer: 0
  m_SortingOrder: 0
  serializedVersion: 2
  m_Quality: 0
  m_UpdateWhenOffscreen: 0
  m_SkinnedMotionVectors: 1
  m_Mesh: {fileID: 4300010, guid: 94e7fb9ed212451468dcb6f215ca9272, type: 3}
  m_Bones: []
  m_BlendShapeWeights:
  - 3.6
  - 0
  m_RootBone: {fileID: 0}
  m_AABB:
    m_Center: {x: 0.000000014901161, y: -0.000000026077032, z: -0.0000000060535967}
    m_Extent: {x: 0.011973768, y: 0.011973766, z: 0.011973767}
  m_DirtyAABB: 0
--- !u!1001 &3001619321004827599
PrefabInstance:
  m_ObjectHideFlags: 0
  serializedVersion: 2
  m_Modification:
    m_TransformParent: {fileID: 0}
    m_Modifications:
    - target: {fileID: 100000, guid: 94e7fb9ed212451468dcb6f215ca9272, type: 3}
      propertyPath: m_Name
      value: block-kick
      objectReference: {fileID: 0}
    - target: {fileID: 400000, guid: 94e7fb9ed212451468dcb6f215ca9272, type: 3}
      propertyPath: m_LocalPosition.x
      value: 0
      objectReference: {fileID: 0}
    - target: {fileID: 400000, guid: 94e7fb9ed212451468dcb6f215ca9272, type: 3}
      propertyPath: m_LocalPosition.y
      value: 0
      objectReference: {fileID: 0}
    - target: {fileID: 400000, guid: 94e7fb9ed212451468dcb6f215ca9272, type: 3}
      propertyPath: m_LocalPosition.z
      value: 0
      objectReference: {fileID: 0}
    - target: {fileID: 400000, guid: 94e7fb9ed212451468dcb6f215ca9272, type: 3}
      propertyPath: m_LocalRotation.x
      value: 0
      objectReference: {fileID: 0}
    - target: {fileID: 400000, guid: 94e7fb9ed212451468dcb6f215ca9272, type: 3}
      propertyPath: m_LocalRotation.y
      value: 0
      objectReference: {fileID: 0}
    - target: {fileID: 400000, guid: 94e7fb9ed212451468dcb6f215ca9272, type: 3}
      propertyPath: m_LocalRotation.z
      value: 0
      objectReference: {fileID: 0}
    - target: {fileID: 400000, guid: 94e7fb9ed212451468dcb6f215ca9272, type: 3}
      propertyPath: m_LocalRotation.w
      value: 1
      objectReference: {fileID: 0}
    - target: {fileID: 400000, guid: 94e7fb9ed212451468dcb6f215ca9272, type: 3}
      propertyPath: m_RootOrder
      value: 0
      objectReference: {fileID: 0}
    - target: {fileID: 400000, guid: 94e7fb9ed212451468dcb6f215ca9272, type: 3}
      propertyPath: m_LocalEulerAnglesHint.x
      value: 0
      objectReference: {fileID: 0}
    - target: {fileID: 400000, guid: 94e7fb9ed212451468dcb6f215ca9272, type: 3}
      propertyPath: m_LocalEulerAnglesHint.y
      value: 0
      objectReference: {fileID: 0}
    - target: {fileID: 400000, guid: 94e7fb9ed212451468dcb6f215ca9272, type: 3}
      propertyPath: m_LocalEulerAnglesHint.z
      value: 0
      objectReference: {fileID: 0}
    - target: {fileID: 400000, guid: 94e7fb9ed212451468dcb6f215ca9272, type: 3}
      propertyPath: m_LocalScale.x
      value: 20
      objectReference: {fileID: 0}
    - target: {fileID: 400000, guid: 94e7fb9ed212451468dcb6f215ca9272, type: 3}
      propertyPath: m_LocalScale.y
      value: 20
      objectReference: {fileID: 0}
    - target: {fileID: 400000, guid: 94e7fb9ed212451468dcb6f215ca9272, type: 3}
      propertyPath: m_LocalScale.z
      value: 20
      objectReference: {fileID: 0}
    - target: {fileID: 2300000, guid: 94e7fb9ed212451468dcb6f215ca9272, type: 3}
      propertyPath: m_Materials.Array.data[1]
      value: 
      objectReference: {fileID: 2100000, guid: c2265639013f58a42a1e3e3354442c11, type: 2}
    - target: {fileID: 2300000, guid: 94e7fb9ed212451468dcb6f215ca9272, type: 3}
      propertyPath: m_Materials.Array.data[0]
      value: 
      objectReference: {fileID: 2100000, guid: 04b925b54977bf540b7ed4f56cc06b16, type: 2}
    m_RemovedComponents:
    - {fileID: 2300000, guid: 94e7fb9ed212451468dcb6f215ca9272, type: 3}
  m_SourcePrefab: {fileID: 100100000, guid: 94e7fb9ed212451468dcb6f215ca9272, type: 3}
--- !u!1 &3001619321004795247 stripped
GameObject:
  m_CorrespondingSourceObject: {fileID: 100000, guid: 94e7fb9ed212451468dcb6f215ca9272,
    type: 3}
  m_PrefabInstance: {fileID: 3001619321004827599}
  m_PrefabAsset: {fileID: 0}
